A solution has been found
Exists failures: (2,3) (2,5) (2,8) (4,5)
Exists success: (2,1)[|E 1|] (2,2)[|E 2|] (2,4)[|E 1|<|FA 1||E 2|;|FA 2||E 1|>] (2,6)[|E 1|<|FA 1||E 1|<|FA 1||E 2|;|FA 2||E 1|>;|FA 2||E 3|>] (2,7)[|E 2|<|FA 1|;|FA 2|;|FA 3||E 2|;|FA 4||E 1|>] (4,1)[|E 1|] (4,3)[|E 3|] (4,6)[|E 1|] (6,2)[|E 2|] (6,5)[|E 5|] (8,1)[|E 1|] (8,4)[|E 1|] (9,10)[|E 2|<|FA 1||E 2|<|FA 1|;|FA 2|;|FA 3||E 2|;|FA 4||E 1|>;|FA 2||E 1|;|FA 3||E 5|;|FA 4||E 1|>]
Forall failures: (2,1) (2,2) (2,4) (2,6) (2,7) (2,9) (4,1) (4,3) (4,6) (6,2) (8,1)
Forall success: (2,3)[|FA 1||E 2|,|FA 2||E 1|] (2,5)[|FA 1||E 1|<|FA 1||E 2|;|FA 2||E 1|>,|FA 2||E 3|] (4,5)[|FA 1|,|FA 2|,|FA 3||E 2|,|FA 4||E 1|] (4,8)[|FA 1||E 2|<|FA 1|;|FA 2|;|FA 3||E 2|;|FA 4||E 1|>,|FA 2||E 1|,|FA 3||E 5|,|FA 4||E 1|]
------------------------------------
|E 2|<|FA 1||E 2|<|FA 1||E 1|<|FA 1||E 2|;|FA 2||E 1|>;|FA 2||E 3|;|FA 3||E 2|;|FA 4||E 1|>;|FA 2||E 1|<|FA 1||E 1|<|FA 1||E 2|;|FA 2||E 1|>;|FA 2||E 3|>;|FA 3||E 5|;|FA 4||E 1|<|FA 1||E 2|;|FA 2||E 1|>>
