A solution has been found
Exists failures: (2,3) (2,5) (2,8) (2,11) (2,13) (4,5) (4,8) (6,8)
Exists success: (2,1)[|E 1|] (2,2)[|E 2|] (2,4)[|E 1|<|FA 1|;|FA 2|>] (2,6)[|E 1|] (2,7)[|E 2|<|FA 1||E 1|<|FA 1|;|FA 2|>;|FA 2||E 3|;|FA 3||E 2|;|FA 4||E 1|>] (2,9)[|E 1|<|FA 1||E 2|<|FA 1||E 1|<|FA 1|;|FA 2|>;|FA 2||E 3|;|FA 3||E 2|;|FA 4||E 1|>;|FA 2||E 1|<|FA 1|;|FA 2|>>] (2,10)[|E 2|<|FA 1|;|FA 2|;|FA 3||E 5|;|FA 4||E 1|>] (2,12)[|E 1|<|FA 1|;|FA 2|>] (4,1)[|E 1|] (4,3)[|E 3|] (4,6)[|E 1|<|FA 1|;|FA 2|>] (4,9)[|E 1|] (4,11)[|E 3|<|FA 1|;|FA 2|;|FA 3|;|FA 4|;|FA 5||E 3|;|FA 6||E 2|>] (6,2)[|E 2|] (6,5)[|E 5|] (6,10)[|E 2|] (8,1)[|E 1|] (8,4)[|E 1|] (8,9)[|E 1|] (10,3)[|E 3|] (12,2)[|E 2|] (14,15)[|E 2|<|FA 1||E 1|<|FA 1|;|FA 2|>;|FA 2||E 3|<|FA 1|;|FA 2|;|FA 3|;|FA 4|;|FA 5||E 3|;|FA 6||E 2|>;|FA 3||E 2|;|FA 4||E 1|>]
Forall failures: (2,1) (2,2) (2,4) (2,6) (2,7) (2,9) (2,10) (2,12) (2,14) (4,1) (4,3) (4,6) (4,9) (4,11) (6,2) (6,5) (8,1) (8,4) (10,3) (12,2)
Forall success: (2,3)[|FA 1|,|FA 2|] (2,5)[|FA 1|,|FA 2|] (2,8)[|FA 1||E 2|<|FA 1||E 1|<|FA 1|;|FA 2|>;|FA 2||E 3|;|FA 3||E 2|;|FA 4||E 1|>,|FA 2||E 1|<|FA 1|;|FA 2|>] (2,11)[|FA 1|,|FA 2|] (4,5)[|FA 1||E 1|<|FA 1|;|FA 2|>,|FA 2||E 3|,|FA 3||E 2|,|FA 4||E 1|] (4,8)[|FA 1|,|FA 2|,|FA 3||E 5|,|FA 4||E 1|] (4,13)[|FA 1||E 1|<|FA 1|;|FA 2|>,|FA 2||E 3|<|FA 1|;|FA 2|;|FA 3|;|FA 4|;|FA 5||E 3|;|FA 6||E 2|>,|FA 3||E 2|,|FA 4||E 1|] (6,8)[|FA 1|,|FA 2|,|FA 3|,|FA 4|,|FA 5||E 3|,|FA 6||E 2|]
------------------------------------
|E 2|<|FA 1||E 1|<|FA 1||E 2|<|FA 1||E 2|<|FA 1||E 1|<|FA 1||E 2|;|FA 2||E 1|>;|FA 2||E 3|;|FA 3||E 2|;|FA 4||E 1|>;|FA 2||E 1|<|FA 1||E 1|<|FA 1||E 2|;|FA 2||E 1|>;|FA 2||E 3|>;|FA 3||E 5|;|FA 4||E 1|<|FA 1||E 2|;|FA 2||E 1|>>;|FA 2||E 1|<|FA 1||E 2|<|FA 1||E 1|<|FA 1||E 2|;|FA 2||E 1|>;|FA 2||E 3|;|FA 3||E 2|;|FA 4||E 1|>;|FA 2||E 1|<|FA 1||E 1|<|FA 1||E 2|;|FA 2||E 1|>;|FA 2||E 3|>>>;|FA 2||E 3|<|FA 1||E 2|<|FA 1||E 1|<|FA 1||E 2|;|FA 2||E 1|>;|FA 2||E 3|;|FA 3||E 2|;|FA 4||E 1|>;|FA 2||E 1|<|FA 1||E 1|<|FA 1||E 2|;|FA 2||E 1|>;|FA 2||E 3|>;|FA 3||E 5|;|FA 4||E 1|<|FA 1||E 2|;|FA 2||E 1|>;|FA 5||E 3|;|FA 6||E 2|>;|FA 3||E 2|<|FA 1||E 2|<|FA 1||E 1|<|FA 1||E 2|;|FA 2||E 1|>;|FA 2||E 3|;|FA 3||E 2|;|FA 4||E 1|>;|FA 2||E 1|<|FA 1||E 1|<|FA 1||E 2|;|FA 2||E 1|>;|FA 2||E 3|>;|FA 3||E 5|;|FA 4||E 1|<|FA 1||E 2|;|FA 2||E 1|>>;|FA 4||E 1|<|FA 1||E 2|<|FA 1||E 1|<|FA 1||E 2|;|FA 2||E 1|>;|FA 2||E 3|;|FA 3||E 2|;|FA 4||E 1|>;|FA 2||E 1|<|FA 1||E 1|<|FA 1||E 2|;|FA 2||E 1|>;|FA 2||E 3|>>>
