A solution has been found
Exists success: (2,1)[|E 1|] (2,2)[|E 2|] (2,4)[|E 1|<|FA 1||E 2|;|FA 2||E 1|>] (4,1)[|E 1|] (4,3)[|E 3|] (5,6)[|E 1|<|FA 1||E 1|<|FA 1||E 2|;|FA 2||E 1|>;|FA 2||E 3|>]
Forall failures: (2,1) (2,2) (4,1)
Forall success: (2,3)[|FA 1||E 2|,|FA 2||E 1|] (2,5)[|FA 1||E 1|<|FA 1||E 2|;|FA 2||E 1|>,|FA 2||E 3|]
------------------------------------
|E 1|<|FA 1||E 1|<|FA 1||E 2|;|FA 2||E 1|>;|FA 2||E 3|>
