A solution has been found
------------------------------------
|E 2|<|FA 1||E 1|<|FA 1||E 2|<|FA 1||E 2|<|FA 1||E 1|<|FA 1||E 2|;|FA 2||E 1|>;|FA 2||E 3|;|FA 3||E 2|;|FA 4||E 1|>;|FA 2||E 1|<|FA 1||E 1|<|FA 1||E 2|;|FA 2||E 1|>;|FA 2||E 3|>;|FA 3||E 5|;|FA 4||E 1|<|FA 1||E 2|;|FA 2||E 1|>>;|FA 2||E 1|<|FA 1||E 2|<|FA 1||E 1|<|FA 1||E 2|;|FA 2||E 1|>;|FA 2||E 3|;|FA 3||E 2|;|FA 4||E 1|>;|FA 2||E 1|<|FA 1||E 1|<|FA 1||E 2|;|FA 2||E 1|>;|FA 2||E 3|>>>;|FA 2||E 3|<|FA 1||E 2|<|FA 1||E 1|<|FA 1||E 2|;|FA 2||E 1|>;|FA 2||E 3|;|FA 3||E 2|;|FA 4||E 1|>;|FA 2||E 1|<|FA 1||E 1|<|FA 1||E 2|;|FA 2||E 1|>;|FA 2||E 3|>;|FA 3||E 5|;|FA 4||E 1|<|FA 1||E 2|;|FA 2||E 1|>;|FA 5||E 3|;|FA 6||E 2|>;|FA 3||E 2|<|FA 1||E 2|<|FA 1||E 1|<|FA 1||E 2|;|FA 2||E 1|>;|FA 2||E 3|;|FA 3||E 2|;|FA 4||E 1|>;|FA 2||E 1|<|FA 1||E 1|<|FA 1||E 2|;|FA 2||E 1|>;|FA 2||E 3|>;|FA 3||E 5|;|FA 4||E 1|<|FA 1||E 2|;|FA 2||E 1|>>;|FA 4||E 1|<|FA 1||E 2|<|FA 1||E 1|<|FA 1||E 2|;|FA 2||E 1|>;|FA 2||E 3|;|FA 3||E 2|;|FA 4||E 1|>;|FA 2||E 1|<|FA 1||E 1|<|FA 1||E 2|;|FA 2||E 1|>;|FA 2||E 3|>>>
