No solution
Exists failures: (2,3) (2,5) (4,5) (7,8)
Exists success: (2,1)[|E 1|] (2,2)[|E 2|] (2,4)[|E 1|<|FA 1||E 2|;|FA 2||E 1|>] (2,6)[|E 1|<|FA 1||E 1|<|FA 1||E 2|;|FA 2||E 1|>;|FA 2||E 3|>] (4,1)[|E 1|] (4,3)[|E 3|] (6,2)[|E 2|] (8,1)[|E 1|]
Forall failures: (2,1) (2,2) (2,4) (2,7) (4,1) (4,3) (4,6) (6,2) (6,5) (8,1) (8,4) (10,3) (12,2) (14,1)
Forall success: (2,3)[|FA 1||E 2|,|FA 2||E 1|] (2,5)[|FA 1||E 1|<|FA 1||E 2|;|FA 2||E 1|>,|FA 2||E 3|]
