A solution has been found
Exists failures: (2,3) (2,5)
Exists success: (2,1)[|E 1|] (2,2)[|E 2|] (2,4)[|E 1|<|FA 1|;|FA 2|>] (2,7)[|E 2|<|FA 1||E 1|<|FA 1|;|FA 2|>;|FA 2||E 3|;|FA 3||E 2|;|FA 4||E 1|>] (4,1)[|E 1|] (4,3)[|E 3|] (4,6)[|E 1|<|FA 1|;|FA 2|>] (6,2)[|E 2|] (8,1)[|E 1|] (8,9)[|E 1|<|FA 1||E 2|<|FA 1||E 1|<|FA 1|;|FA 2|>;|FA 2||E 3|;|FA 3||E 2|;|FA 4||E 1|>;|FA 2||E 1|<|FA 1|;|FA 2|>>]
Forall failures: (2,1) (2,2) (2,4) (2,6) (4,1) (4,3)
Forall success: (2,3)[|FA 1|,|FA 2|] (2,5)[|FA 1|,|FA 2|] (2,8)[|FA 1||E 2|<|FA 1||E 1|<|FA 1|;|FA 2|>;|FA 2||E 3|;|FA 3||E 2|;|FA 4||E 1|>,|FA 2||E 1|<|FA 1|;|FA 2|>] (4,5)[|FA 1||E 1|<|FA 1|;|FA 2|>,|FA 2||E 3|,|FA 3||E 2|,|FA 4||E 1|]
------------------------------------
|E 1|<|FA 1||E 2|<|FA 1||E 1|<|FA 1||E 2|;|FA 2||E 1|>;|FA 2||E 3|;|FA 3||E 2|;|FA 4||E 1|>;|FA 2||E 1|<|FA 1||E 1|<|FA 1||E 2|;|FA 2||E 1|>;|FA 2||E 3|>>
