No solution
Exists failures: (2,3) (2,5) (2,8) (2,11) (4,5) (4,8) (6,8) (12,13)
Exists success: (2,1)[|E 1|] (2,2)[|E 2|] (2,4)[|E 1|<|FA 1|;|FA 2|>] (2,6)[|E 1|] (2,7)[|E 2|<|FA 1||E 1|<|FA 1|;|FA 2|>;|FA 2||E 3|;|FA 3||E 2|;|FA 4||E 1|>] (2,9)[|E 1|<|FA 1||E 2|<|FA 1||E 1|<|FA 1|;|FA 2|>;|FA 2||E 3|;|FA 3||E 2|;|FA 4||E 1|>;|FA 2||E 1|<|FA 1|;|FA 2|>>] (2,10)[|E 2|<|FA 1|;|FA 2|;|FA 3||E 5|;|FA 4||E 1|>] (4,1)[|E 1|] (4,3)[|E 3|] (4,6)[|E 1|<|FA 1|;|FA 2|>] (4,9)[|E 1|] (6,2)[|E 2|] (6,5)[|E 5|] (8,1)[|E 1|] (8,4)[|E 1|] (10,3)[|E 3|] (12,2)[|E 2|] (14,1)[|E 1|]
Forall failures: (2,1) (2,2) (2,4) (2,6) (2,7) (2,9) (2,10) (2,12) (4,1) (4,3) (4,6) (4,9) (4,11) (6,2) (6,5) (6,10) (8,1) (8,4) (8,9) (10,3) (10,8) (12,2) (12,7) (14,6) (16,5) (18,4) (20,3) (22,2) (24,1)
Forall success: (2,3)[|FA 1|,|FA 2|] (2,5)[|FA 1|,|FA 2|] (2,8)[|FA 1||E 2|<|FA 1||E 1|<|FA 1|;|FA 2|>;|FA 2||E 3|;|FA 3||E 2|;|FA 4||E 1|>,|FA 2||E 1|<|FA 1|;|FA 2|>] (4,5)[|FA 1||E 1|<|FA 1|;|FA 2|>,|FA 2||E 3|,|FA 3||E 2|,|FA 4||E 1|] (4,8)[|FA 1|,|FA 2|,|FA 3||E 5|,|FA 4||E 1|]
