No solution
Exists failures: (2,3) (2,5) (2,8) (2,11) (2,13) (2,16) (2,18) (4,5) (4,8) (4,13) (4,18) (6,8) (6,13) (10,13) (20,21)
Exists success: (2,1)[|E 1|] (2,2)[|E 2|] (2,4)[|E 1|<|FA 1|;|FA 2|>] (2,6)[|E 1|] (2,7)[|E 2|<|FA 1||E 1|<|FA 1|;|FA 2|>;|FA 2||E 3|;|FA 3||E 2|;|FA 4||E 1|>] (2,9)[|E 1|<|FA 1||E 2|<|FA 1||E 1|<|FA 1|;|FA 2|>;|FA 2||E 3|;|FA 3||E 2|;|FA 4||E 1|>;|FA 2||E 1|<|FA 1|;|FA 2|>>] (2,10)[|E 2|<|FA 1|;|FA 2|;|FA 3||E 5|;|FA 4||E 1|>] (2,12)[|E 1|<|FA 1|;|FA 2|>] (2,14)[|E 1|] (2,15)[|E 2|<|FA 1||E 1|<|FA 1|;|FA 2|>;|FA 2||E 3|<|FA 1|;|FA 2|;|FA 3|;|FA 4|;|FA 5||E 3|;|FA 6||E 2|>;|FA 3||E 2|;|FA 4||E 1|>] (2,17)[|E 1|<|FA 1||E 2|<|FA 1||E 1|<|FA 1|;|FA 2|>;|FA 2||E 3|<|FA 1|;|FA 2|;|FA 3|;|FA 4|;|FA 5||E 3|;|FA 6||E 2|>;|FA 3||E 2|;|FA 4||E 1|>;|FA 2||E 1|<|FA 1|;|FA 2|>>] (2,19)[|E 1|<|FA 1||E 1|<|FA 1||E 2|<|FA 1||E 1|<|FA 1|;|FA 2|>;|FA 2||E 3|<|FA 1|;|FA 2|;|FA 3|;|FA 4|;|FA 5||E 3|;|FA 6||E 2|>;|FA 3||E 2|;|FA 4||E 1|>;|FA 2||E 1|<|FA 1|;|FA 2|>>;|FA 2||E 3|<|FA 1|;|FA 2|;|FA 3|;|FA 4|;|FA 5||E 8|;|FA 6||E 2|>>] (4,1)[|E 1|] (4,3)[|E 3|] (4,6)[|E 1|<|FA 1|;|FA 2|>] (4,9)[|E 1|] (4,11)[|E 3|<|FA 1|;|FA 2|;|FA 3|;|FA 4|;|FA 5||E 3|;|FA 6||E 2|>] (4,14)[|E 1|<|FA 1|;|FA 2|>] (4,16)[|E 3|<|FA 1|;|FA 2|;|FA 3|;|FA 4|;|FA 5||E 8|;|FA 6||E 2|>] (6,2)[|E 2|] (6,5)[|E 5|] (6,10)[|E 2|] (6,15)[|E 2|] (8,1)[|E 1|] (8,4)[|E 1|] (8,9)[|E 1|] (8,14)[|E 1|] (10,3)[|E 3|] (10,8)[|E 8|] (12,2)[|E 2|] (12,7)[|E 2|] (14,1)[|E 1|] (14,6)[|E 1|] (16,5)[|E 5|] (18,4)[|E 1|] (20,3)[|E 3|] (22,2)[|E 2|] (24,1)[|E 1|]
Forall failures: (2,1) (2,2) (2,4) (2,6) (2,7) (2,9) (2,10) (2,12) (2,14) (2,15) (2,17) (2,20) (4,1) (4,3) (4,6) (4,9) (4,11) (4,14) (4,16) (4,19) (6,2) (6,5) (6,10) (6,15) (6,18) (8,1) (8,4) (8,9) (8,14) (8,17) (10,3) (10,8) (10,16) (12,2) (12,7) (12,15) (14,1) (14,6) (14,14) (16,5) (16,13) (18,4) (18,12) (20,3) (20,11) (22,10) (24,9) (26,8) (28,7) (30,6) (32,5) (34,4) (36,3) (38,2) (40,1)
Forall success: (2,3)[|FA 1|,|FA 2|] (2,5)[|FA 1|,|FA 2|] (2,8)[|FA 1||E 2|<|FA 1||E 1|<|FA 1|;|FA 2|>;|FA 2||E 3|;|FA 3||E 2|;|FA 4||E 1|>,|FA 2||E 1|<|FA 1|;|FA 2|>] (2,11)[|FA 1|,|FA 2|] (2,13)[|FA 1|,|FA 2|] (2,16)[|FA 1||E 2|<|FA 1||E 1|<|FA 1|;|FA 2|>;|FA 2||E 3|<|FA 1|;|FA 2|;|FA 3|;|FA 4|;|FA 5||E 3|;|FA 6||E 2|>;|FA 3||E 2|;|FA 4||E 1|>,|FA 2||E 1|<|FA 1|;|FA 2|>] (2,18)[|FA 1||E 1|<|FA 1||E 2|<|FA 1||E 1|<|FA 1|;|FA 2|>;|FA 2||E 3|<|FA 1|;|FA 2|;|FA 3|;|FA 4|;|FA 5||E 3|;|FA 6||E 2|>;|FA 3||E 2|;|FA 4||E 1|>;|FA 2||E 1|<|FA 1|;|FA 2|>>,|FA 2||E 3|<|FA 1|;|FA 2|;|FA 3|;|FA 4|;|FA 5||E 8|;|FA 6||E 2|>] (4,5)[|FA 1||E 1|<|FA 1|;|FA 2|>,|FA 2||E 3|,|FA 3||E 2|,|FA 4||E 1|] (4,8)[|FA 1|,|FA 2|,|FA 3||E 5|,|FA 4||E 1|] (4,13)[|FA 1||E 1|<|FA 1|;|FA 2|>,|FA 2||E 3|<|FA 1|;|FA 2|;|FA 3|;|FA 4|;|FA 5||E 3|;|FA 6||E 2|>,|FA 3||E 2|,|FA 4||E 1|] (6,8)[|FA 1|,|FA 2|,|FA 3|,|FA 4|,|FA 5||E 3|,|FA 6||E 2|] (6,13)[|FA 1|,|FA 2|,|FA 3|,|FA 4|,|FA 5||E 8|,|FA 6||E 2|]
