A solution has been found
Exists success: (2,2)[|E 2|] (3,4)[|E 1|<|FA 1||E 2|;|FA 2||E 1|>] (4,1)[|E 1|]
Forall failures: (2,1)
Forall success: (2,3)[|FA 1||E 2|,|FA 2||E 1|]
------------------------------------
|E 1|<|FA 1||E 2|;|FA 2||E 1|>
