A solution has been found
Exists failures: (2,3) (2,5) (2,8) (4,5) (4,8)
Exists success: (2,1)[|E 1|] (2,2)[|E 2|] (2,4)[|E 1|<|FA 1|;|FA 2|>] (2,6)[|E 1|] (2,7)[|E 2|<|FA 1||E 1|<|FA 1|;|FA 2|>;|FA 2||E 3|;|FA 3||E 2|;|FA 4||E 1|>] (2,9)[|E 1|<|FA 1||E 2|<|FA 1||E 1|<|FA 1|;|FA 2|>;|FA 2||E 3|;|FA 3||E 2|;|FA 4||E 1|>;|FA 2||E 1|<|FA 1|;|FA 2|>>] (4,1)[|E 1|] (4,3)[|E 3|] (4,6)[|E 1|<|FA 1|;|FA 2|>] (6,2)[|E 2|] (6,5)[|E 5|] (8,1)[|E 1|] (8,4)[|E 1|] (10,3)[|E 3|] (10,11)[|E 3|<|FA 1|;|FA 2|;|FA 3||E 5|;|FA 4||E 1|;|FA 5||E 3|;|FA 6||E 2|>] (12,2)[|E 2|]
Forall failures: (2,1) (2,2) (2,4) (2,6) (2,7) (2,10) (4,1) (4,3) (4,6) (4,9) (6,2) (6,5) (8,1) (8,4)
Forall success: (2,3)[|FA 1|,|FA 2|] (2,5)[|FA 1|,|FA 2|] (2,8)[|FA 1||E 2|<|FA 1||E 1|<|FA 1|;|FA 2|>;|FA 2||E 3|;|FA 3||E 2|;|FA 4||E 1|>,|FA 2||E 1|<|FA 1|;|FA 2|>] (4,5)[|FA 1||E 1|<|FA 1|;|FA 2|>,|FA 2||E 3|,|FA 3||E 2|,|FA 4||E 1|] (6,8)[|FA 1|,|FA 2|,|FA 3||E 5|,|FA 4||E 1|,|FA 5||E 3|,|FA 6||E 2|]
------------------------------------
|E 3|<|FA 1||E 2|<|FA 1||E 1|<|FA 1||E 2|;|FA 2||E 1|>;|FA 2||E 3|;|FA 3||E 2|;|FA 4||E 1|>;|FA 2||E 1|<|FA 1||E 1|<|FA 1||E 2|;|FA 2||E 1|>;|FA 2||E 3|>;|FA 3||E 5|;|FA 4||E 1|<|FA 1||E 2|;|FA 2||E 1|>;|FA 5||E 3|;|FA 6||E 2|>
