<?xml version="1.0" encoding="UTF-8" standalone="no"?>
<!-- Created with Inkscape (http://www.inkscape.org/) -->

<svg
   xmlns:dc="http://purl.org/dc/elements/1.1/"
   xmlns:cc="http://creativecommons.org/ns#"
   xmlns:rdf="http://www.w3.org/1999/02/22-rdf-syntax-ns#"
   xmlns:svg="http://www.w3.org/2000/svg"
   xmlns="http://www.w3.org/2000/svg"
   xmlns:sodipodi="http://sodipodi.sourceforge.net/DTD/sodipodi-0.dtd"
   xmlns:inkscape="http://www.inkscape.org/namespaces/inkscape"
   width="263.73611"
   height="275.73611"
   id="svg2"
   version="1.1"
   inkscape:version="0.91 r13725"
   sodipodi:docname="logo_chrpp.svg"
   inkscape:export-filename="/home/vincent/Sources/chrpp/misc/logo_chrpp.png"
   inkscape:export-xdpi="90"
   inkscape:export-ydpi="90">
  <defs
     id="defs4" />
  <sodipodi:namedview
     id="base"
     pagecolor="#ffffff"
     bordercolor="#666666"
     borderopacity="1.0"
     inkscape:pageopacity="0.0"
     inkscape:pageshadow="2"
     inkscape:zoom="0.99"
     inkscape:cx="139.35777"
     inkscape:cy="163.85596"
     inkscape:document-units="px"
     inkscape:current-layer="layer1"
     showgrid="false"
     inkscape:window-width="1190"
     inkscape:window-height="873"
     inkscape:window-x="150"
     inkscape:window-y="84"
     inkscape:window-maximized="0"
     fit-margin-top="0.5"
     fit-margin-left="0.5"
     fit-margin-right="0.5"
     fit-margin-bottom="0.5"
     units="cm" />
  <metadata
     id="metadata7">
    <rdf:RDF>
      <cc:Work
         rdf:about="">
        <dc:format>image/svg+xml</dc:format>
        <dc:type
           rdf:resource="http://purl.org/dc/dcmitype/StillImage" />
        <dc:title />
      </cc:Work>
    </rdf:RDF>
  </metadata>
  <g
     inkscape:label="Calque 1"
     inkscape:groupmode="layer"
     id="layer1"
     transform="translate(-54.000635,-16.463823)">
    <text
       xml:space="preserve"
       style="font-size:144px;font-style:normal;font-variant:normal;font-weight:normal;font-stretch:normal;line-height:125%;letter-spacing:0px;word-spacing:0px;fill:#000000;fill-opacity:1;stroke:none;font-family:Droid Sans;-inkscape-font-specification:Droid Sans"
       x="158.59395"
       y="399.80365"
       id="text2985"
       sodipodi:linespacing="125%"><tspan
         sodipodi:role="line"
         id="tspan2987"
         x="158.59395"
         y="399.80365" /></text>
    <g
       id="g3802"
       style="fill:#4d4d4d;stroke:#000000;stroke-opacity:1">
      <rect
         y="107.41268"
         x="71.717171"
         height="9.090909"
         width="155.55556"
         id="rect3014"
         style="fill:#4d4d4d;stroke:none" />
      <rect
         transform="matrix(0,-1,1,0,0,0)"
         y="144.94949"
         x="-189.73592"
         height="9.090909"
         width="155.55556"
         id="rect3014-1"
         style="fill:#4d4d4d;stroke:none" />
    </g>
    <g
       transform="translate(72.747475,88.747479)"
       id="g3802-1"
       style="fill:#4d4d4d">
      <rect
         y="107.41268"
         x="71.717171"
         height="9.090909"
         width="155.55556"
         id="rect3014-0"
         style="fill:#4d4d4d;stroke:none" />
      <rect
         transform="matrix(0,-1,1,0,0,0)"
         y="144.94949"
         x="-189.73592"
         height="9.090909"
         width="155.55556"
         id="rect3014-1-8"
         style="fill:#4d4d4d;stroke:none" />
    </g>
    <text
       xml:space="preserve"
       style="font-size:72px;font-style:normal;font-variant:normal;font-weight:normal;font-stretch:normal;line-height:125%;letter-spacing:0px;word-spacing:0px;fill:#803300;fill-opacity:1;stroke:none;font-family:Droid Sans;-inkscape-font-specification:Droid Sans"
       x="84.828285"
       y="93.776352"
       id="text3830"
       sodipodi:linespacing="125%"><tspan
         sodipodi:role="line"
         id="tspan3832"
         x="84.828285"
         y="93.776352">C</tspan></text>
    <text
       xml:space="preserve"
       style="font-style:normal;font-variant:normal;font-weight:normal;font-stretch:normal;font-size:72px;line-height:125%;font-family:'Droid Sans';-inkscape-font-specification:'Droid Sans';letter-spacing:0px;word-spacing:0px;fill:#803300;fill-opacity:1;stroke:none"
       x="160.52525"
       y="182.48341"
       id="text3834"
       sodipodi:linespacing="125%"><tspan
         sodipodi:role="line"
         id="tspan3836"
         x="160.52525"
         y="182.48341">H</tspan></text>
    <text
       xml:space="preserve"
       style="font-style:normal;font-variant:normal;font-weight:normal;font-stretch:normal;font-size:72px;line-height:125%;font-family:'Droid Sans';-inkscape-font-specification:'Droid Sans';letter-spacing:0px;word-spacing:0px;fill:#803300;fill-opacity:1;stroke:none"
       x="237.43434"
       y="269.41272"
       id="text3838"
       sodipodi:linespacing="125%"><tspan
         sodipodi:role="line"
         id="tspan3840"
         x="237.43434"
         y="269.41272">R</tspan></text>
  </g>
</svg>
