----------
From line 1 to 0
----------
body_5.chr:3:49: parse error
test(A,B), test(A,C) <=> A == B | A %= B, A==B, ;;</CHR>
                                                ^
----------
----------
----------
