----------
From line 1 to 4
----------
----------
(constraint) test( ( ?int ), ( ?int ) ), persistent
(rule) test( X, Y ) <=> ( X == Y ) | false ;;
(occ rule) [-test( X, Y )#0][( X == Y )] --> false ;;
----------
----------
