----------
From line 1 to 3
----------
test<test(  )> --> test<test(  )>
----------
(constraint) test(  ), persistent
(rule) test(  ) ==> test(  ) ;;
(occ rule) [=test(  )#0][] --> test(  ) ;;
----------
----------
