----------
From line 1 to 0
----------
chr_constraint_cpp_keyword.chr:2:18: parse error, CPP keyword cannot be used as a CHR constraint name
<chr_constraint> delete()
                 ^
----------
----------
----------
