----------
From line 1 to 0
----------
chr_count_2.chr:3:36: parse error matching head, undeclared CHR constraint
test(A,B), test(C,B) <=> chr_count(toto(A,_));;
                                   ^
----------
----------
----------
