----------
From line 1 to 0
----------
constraint_decl_3.chr:2:57: parse error, CHR constraint duplicate name "test"
<chr_constraint> test(+int, ?unsigned char, -ObjClass), test(+int, ?unsigned char, -ObjClass)</CHR>
                                                        ^
----------
----------
----------
