----------
From line 1 to 0
----------
constraint_decl_2.chr:2:29: parse error matching mode (unknown), mode must be either '+', '-' or '?'
<chr_constraint> test(+int, unsigned char, -ObjClass)</CHR>
                            ^
----------
----------
----------
