----------
From line 1 to 2
----------
----------
(constraint) test( ( +int ), ( ?unsigned char ), ( -ObjClass ) ), persistent
(constraint) test2( ( +int ), ( ?unsigned char ) ), persistent
----------
----------
