----------
From line 1 to 0
----------
exists_14.chr:3:47: parse error matching bracketed expression, unexpected character encountered
test(A,B), test(C,B) <=> A == C | exists(n,B,(A == C ; A == 4), A %= 2);;
                                              ^
----------
----------
----------
