----------
From line 1 to 0
----------
exists_11.chr:3:49: parse error, assignment cannot be encountered here
test(A,B), test(C,B) <=> A == C | exists(n,B, n = 3, A %= 2);;
                                                ^
----------
----------
----------
