----------
From line 1 to 0
----------
exists_8.chr:3:48: parse error matching reserved CHR keyword in expression
test(A,B), test(C,B) <=> A == C | exists_it(n, exists_it(j,B,B == 2), A %= 2);;
                                               ^
----------
----------
----------
