----------
From line 1 to 0
----------
exists_3.chr:3:57: parse error, CHR constraint call cannot be encountered here
test(A,B), test(C,B) <=> A == C | exists_it(n, test(2,1), A %= 2);;
                                                        ^
----------
----------
----------
