----------
From line 1 to 0
----------
exists_10.chr:3:56: parse error, CHR constraint call cannot be encountered here
test(A,B), test(C,B) <=> A == C | exists(n,B, test(A,B), A %= 2);;
                                                       ^
----------
----------
----------
