----------
From line 1 to 0
----------
exists_17.chr:3:41: parse error matching behavior, exists or forall (probably a wrong number of arguments)
test(A,B), test(C,B) <=> A == C | exists(n,A == 3; C == 3, A %= 2);;
                                        ^
----------
----------
----------
