----------
From line 1 to 0
----------
exists_4.chr:3:49: parse error, assignment cannot be encountered here
test(A,B), test(C,B) <=> A == C | exists_it(n,x = 3, A %= 2);;
                                                ^
----------
----------
----------
