----------
From line 1 to 0
----------
exists_7.chr:3:48: parse error matching bracketed expression, unexpected character encountered
test(A,B), test(C,B) <=> A == C | exists_it(n,(B == 3 , B == 4), A %= 2);;
                                               ^
----------
----------
----------
