----------
From line 1 to 0
----------
exists_5.chr:3:49: parse error, unification cannot be encountered here
test(A,B), test(C,B) <=> A == C | exists_it(n,B %= 3, A %= 2);;
                                                ^
----------
----------
----------
