----------
From line 1 to 0
----------
exists_12.chr:3:48: parse error, unification cannot be encountered here
test(A,B), test(C,B) <=> A == C | exists(n,B,A %= 2, A %= 2);;
                                               ^
----------
----------
----------
