----------
From line 1 to 0
----------
exists_2.chr:3:45: parse error matching local variable identifier
test(A,B), test(C,B) <=> A == C | exists_it(A,B, A %= 2);;
                                            ^
----------
----------
----------
