----------
From line 1 to 0
----------
exists_13.chr:3:48: parse error matching bracketed expression, unexpected character encountered
test(A,B), test(C,B) <=> A == C | exists(n,B, (A == 2, A == B), A %= 2);;
                                               ^
----------
----------
----------
