----------
From line 1 to 4
----------
test<test( A, B )> { test<test( C, B )> } --> built-in<2>
----------
(constraint) test( ( ?int ), ( ?( std :: vector )< int > ) ), indexes: { <1> }
(rule) test( A, B ), test( C, B ) <=> ( A == C ) | ( n = A, __local_success__4 = true, behavior( ( ( !__local_success__4 ) || ( n > B ) ), ( ++n ), __local_success__4 = false, __local_success__4, , , A %= 2) ) ;;
(occ rule) [-test( A, B )#0][-test( C, B )<idx#0>, ( A == C )] --> ( n = A, __local_success__4 = true, behavior( ( ( !__local_success__4 ) || ( n > B ) ), ( ++n ), __local_success__4 = false, __local_success__4, , , A %= 2) ) ;;
(occ rule) [-test( C, B )#1][-test( A, B )<idx#0>, ( A == C )] --> ( n = A, __local_success__4 = true, behavior( ( ( !__local_success__4 ) || ( n > B ) ), ( ++n ), __local_success__4 = false, __local_success__4, , , A %= 2) ) ;;
----------
----------
