----------
From line 1 to 0
----------
guard_4.chr:3:28: parse error matching guard, all but the last one must be local variable declarations
test(A,B), test(A,C) <=> D %= B, D == A | success();;</CHR>
                           ^
----------
----------
----------
