----------
From line 1 to 0
----------
guard_8.chr:3:30: parse error matching CHR constraint in guard
test(A,B), test(A,C) ==> test(A,B) | success();;</CHR>
                             ^
----------
----------
----------
