----------
From line 1 to 0
----------
guard_5.chr:3:28: parse error matching non const operator in guard
test(A,B), test(A,C) <=> D %= 2 && D == A | success();;
                           ^
----------
----------
----------
