----------
From line 1 to 0
----------
head_1.chr:3:2: parse error matching expression, expected one of the end list tokens ')', ']' or ']>'
a <=> success();;</CHR>
 ^
----------
----------
----------
