----------
From line 1 to 3
----------
----------
(constraint) test( ( ?int ), ( -int ), ( +unsigned char ) ), persistent
(rule) test( A, _, _ ) ==> success ;;
(occ rule) [=test( A, _, _ )#0][] --> success ;;
----------
----------
