----------
From line 1 to 0
----------
head_10.chr:3:5: parse error matching expression, expected one of the end list tokens ')', ']' or ']>'
test(A,C+1,a) ==> success();;</CHR>
    ^
----------
----------
----------
