----------
From line 1 to 0
----------
operator_35.chr:3:38: parse error matching local variable identifier of assignment
test(A,B), test(A,C) <=> A == -B | A = 2;;</CHR>
                                     ^
----------
----------
----------
