----------
From line 1 to 0
----------
operator_44.chr:3:56: parse error matching expression, expected one of the end list tokens ')', ']' or ']>'
test(A,B), test(A,C) <=> A == B | toto(A) ; toto(B %= 1; B %= 2);;</CHR>
                                                       ^
----------
----------
----------
