----------
From line 1 to 0
----------
operator_43.chr:3:51: parse error matching bracketed expression, unexpected character encountered
test(A,B), test(A,C) <=> A == B | toto(A) ; A %= (B ; A) ; toto(B);;</CHR>
                                                  ^
----------
----------
----------
