----------
From line 1 to 0
----------
pragma_4.chr:3:45: parse error matching pragma, unknown pragma in body constraint call
test(A,B), test(A,C) <=> B == A | tutu(A) # no_ure;;</CHR>
                                            ^
----------
----------
----------
