----------
From line 1 to 0
----------
pragma_2.chr:3:13: parse error matching pragma, unknown pragma in constraint head
test(A,B) # titi, test(A,C) <=> B == A | success();;</CHR>
            ^
----------
----------
----------
