----------
From line 1 to 0
----------
unify_5.chr:3:37: parse error matching local variable identifier of assignment
test(A,B), test(A,C) <=> A == B | A = A + 1;;</CHR>
                                    ^
----------
----------
----------
