----------
From line 1 to 0
----------
unify_3.chr:3:28: parse error matching non const operator in guard
test(A,B), test(A,C) <=> D %= 6 | success();;</CHR>
                           ^
----------
----------
----------
