----------
From line 1 to 0
----------
unify_4.chr:3:42: parse error matching expression
test(A,B), test(A,C) <=> A == B | A + 1 %= B;;</CHR>
                                         ^
----------
----------
----------
